^E:\DKIT\C++\C++CA3_PATRICKNUGENT\C++CA3_PATRICKNUGENT\C++CA3_PATRICKNUGENT.CPP|E:\DKIT\C++\C++CA3_PATRICKNUGENT\C++CA3_PATRICKNUGENT\STUDENT.CPP
E:\DKIT\C++\C++CA3_PATRICKNUGENT\C++CA3_PATRICKNUGENT\DEBUG\VC142.PDB
E:\DKIT\C++\C++CA3_PATRICKNUGENT\C++CA3_PATRICKNUGENT\DEBUG\VC142.IDB
E:\DKIT\C++\C++CA3_PATRICKNUGENT\C++CA3_PATRICKNUGENT\DEBUG\STUDENT.OBJ
E:\DKIT\C++\C++CA3_PATRICKNUGENT\C++CA3_PATRICKNUGENT\DEBUG\C++CA3_PATRICKNUGENT.OBJ
^E:\DKIT\C++\C++CA3_PATRICKNUGENT\C++CA3_PATRICKNUGENT\STUDENT.CPP
E:\DKIT\C++\C++CA3_PATRICKNUGENT\C++CA3_PATRICKNUGENT\DEBUG\VC142.PDB
^E:\DKIT\C++\C++CA3_PATRICKNUGENT\C++CA3_PATRICKNUGENT\C++CA3_PATRICKNUGENT.CPP
E:\DKIT\C++\C++CA3_PATRICKNUGENT\C++CA3_PATRICKNUGENT\DEBUG\VC142.PDB
E:\DKIT\C++\C++CA3_PATRICKNUGENT\C++CA3_PATRICKNUGENT\DEBUG\VC142.IDB
E:\DKIT\C++\C++CA3_PATRICKNUGENT\C++CA3_PATRICKNUGENT\DEBUG\C++CA3_PATRICKNUGENT.OBJ
^E:\DKIT\C++\CA3\C++CA3_PATRICKNUGENT\C++CA3_PATRICKNUGENT\C++CA3_PATRICKNUGENT.CPP|E:\DKIT\C++\CA3\C++CA3_PATRICKNUGENT\C++CA3_PATRICKNUGENT\STUDENT.CPP
E:\DKIT\C++\CA3\C++CA3_PATRICKNUGENT\C++CA3_PATRICKNUGENT\DEBUG\VC142.PDB
E:\DKIT\C++\CA3\C++CA3_PATRICKNUGENT\C++CA3_PATRICKNUGENT\DEBUG\VC142.IDB
E:\DKIT\C++\CA3\C++CA3_PATRICKNUGENT\C++CA3_PATRICKNUGENT\DEBUG\STUDENT.OBJ
E:\DKIT\C++\CA3\C++CA3_PATRICKNUGENT\C++CA3_PATRICKNUGENT\DEBUG\C++CA3_PATRICKNUGENT.OBJ
^E:\DKIT\C++\CA3\C++CA3_PATRICKNUGENT\C++CA3_PATRICKNUGENT\C++CA3_PATRICKNUGENT.CPP
E:\DKIT\C++\CA3\C++CA3_PATRICKNUGENT\C++CA3_PATRICKNUGENT\DEBUG\VC142.PDB
^E:\DKIT\C++\CA3\C++CA3_PATRICKNUGENT\C++CA3_PATRICKNUGENT\STUDENT.CPP
E:\DKIT\C++\CA3\C++CA3_PATRICKNUGENT\C++CA3_PATRICKNUGENT\DEBUG\VC142.PDB
