^E:\DKIT\C++\C++CA3_PATRICKNUGENT\C++CA3_PATRICKNUGENT\DEBUG\C++CA3_PATRICKNUGENT.OBJ|E:\DKIT\C++\C++CA3_PATRICKNUGENT\C++CA3_PATRICKNUGENT\DEBUG\STUDENT.OBJ
E:\DKIT\C++\C++CA3_PATRICKNUGENT\DEBUG\C++CA3_PATRICKNUGENT.EXE
E:\DKIT\C++\C++CA3_PATRICKNUGENT\DEBUG\C++CA3_PATRICKNUGENT.ILK
E:\DKIT\C++\C++CA3_PATRICKNUGENT\DEBUG\C++CA3_PATRICKNUGENT.PDB
^E:\DKIT\C++\CA3\C++CA3_PATRICKNUGENT\C++CA3_PATRICKNUGENT\DEBUG\C++CA3_PATRICKNUGENT.OBJ|E:\DKIT\C++\CA3\C++CA3_PATRICKNUGENT\C++CA3_PATRICKNUGENT\DEBUG\STUDENT.OBJ
E:\DKIT\C++\CA3\C++CA3_PATRICKNUGENT\DEBUG\C++CA3_PATRICKNUGENT.EXE
E:\DKIT\C++\CA3\C++CA3_PATRICKNUGENT\DEBUG\C++CA3_PATRICKNUGENT.ILK
E:\DKIT\C++\CA3\C++CA3_PATRICKNUGENT\DEBUG\C++CA3_PATRICKNUGENT.PDB
